Projeto3/simulation/qsim/Projeto3.msim.vcd
$comment
	File created using the following command:
		vcd file Projeto3.msim.vcd -direction
$end
$date
	Fri Jun 21 01:53:57 2024
$end
$version
	ModelSim Version 10.1d
$end
$timescale
	1ps
$end
$scope module SAD_vlg_vec_tst $end
$var reg 1 ! clk $end
$var reg 1 " go $end
$var reg 1 # reset $end
$var wire 1 $ AB_addr_watch [8] $end
$var wire 1 % AB_addr_watch [7] $end
$var wire 1 & AB_addr_watch [6] $end
$var wire 1 ' AB_addr_watch [5] $end
$var wire 1 ( AB_addr_watch [4] $end
$var wire 1 ) AB_addr_watch [3] $end
$var wire 1 * AB_addr_watch [2] $end
$var wire 1 + AB_addr_watch [1] $end
$var wire 1 , AB_addr_watch [0] $end
$var wire 1 - debug [2] $end
$var wire 1 . debug [1] $end
$var wire 1 / debug [0] $end
$var wire 1 0 sad [31] $end
$var wire 1 1 sad [30] $end
$var wire 1 2 sad [29] $end
$var wire 1 3 sad [28] $end
$var wire 1 4 sad [27] $end
$var wire 1 5 sad [26] $end
$var wire 1 6 sad [25] $end
$var wire 1 7 sad [24] $end
$var wire 1 8 sad [23] $end
$var wire 1 9 sad [22] $end
$var wire 1 : sad [21] $end
$var wire 1 ; sad [20] $end
$var wire 1 < sad [19] $end
$var wire 1 = sad [18] $end
$var wire 1 > sad [17] $end
$var wire 1 ? sad [16] $end
$var wire 1 @ sad [15] $end
$var wire 1 A sad [14] $end
$var wire 1 B sad [13] $end
$var wire 1 C sad [12] $end
$var wire 1 D sad [11] $end
$var wire 1 E sad [10] $end
$var wire 1 F sad [9] $end
$var wire 1 G sad [8] $end
$var wire 1 H sad [7] $end
$var wire 1 I sad [6] $end
$var wire 1 J sad [5] $end
$var wire 1 K sad [4] $end
$var wire 1 L sad [3] $end
$var wire 1 M sad [2] $end
$var wire 1 N sad [1] $end
$var wire 1 O sad [0] $end
$var wire 1 P sampler $end
$scope module i1 $end
$var wire 1 Q gnd $end
$var wire 1 R vcc $end
$var wire 1 S unknown $end
$var tri1 1 T devclrn $end
$var tri1 1 U devpor $end
$var tri1 1 V devoe $end
$var wire 1 W DP|Comparator_inst|LessThan0~0_combout $end
$var wire 1 X DP|Abs_inst|Result[0]~0_combout $end
$var wire 1 Y DP|Abs_inst|Result[0]~1_combout $end
$var wire 1 Z DP|Abs_inst|Result[0]~2_combout $end
$var wire 1 [ clk~combout $end
$var wire 1 \ clk~clkctrl_outclk $end
$var wire 1 ] DP|CustomAdderRegister_inst|data_out[0]~32_combout $end
$var wire 1 ^ go~combout $end
$var wire 1 _ CTRL|stateReg.RST~feeder_combout $end
$var wire 1 ` reset~combout $end
$var wire 1 a reset~clkctrl_outclk $end
$var wire 1 b CTRL|stateReg.RST~regout $end
$var wire 1 c DP|IndexRegister_inst|Creg[0]~8_combout $end
$var wire 1 d DP|IndexRegister_inst|Creg[1]~10 $end
$var wire 1 e DP|IndexRegister_inst|Creg[2]~11_combout $end
$var wire 1 f DP|IndexRegister_inst|Creg[2]~12 $end
$var wire 1 g DP|IndexRegister_inst|Creg[3]~13_combout $end
$var wire 1 h DP|IndexRegister_inst|Creg[3]~14 $end
$var wire 1 i DP|IndexRegister_inst|Creg[4]~16 $end
$var wire 1 j DP|IndexRegister_inst|Creg[5]~17_combout $end
$var wire 1 k DP|IndexRegister_inst|Creg[5]~18 $end
$var wire 1 l DP|IndexRegister_inst|Creg[6]~20 $end
$var wire 1 m DP|IndexRegister_inst|Creg[7]~21_combout $end
$var wire 1 n DP|IndexRegister_inst|Creg[7]~22 $end
$var wire 1 o DP|IndexRegister_inst|Creg[8]~23_combout $end
$var wire 1 p CTRL|nextState.S3~0_combout $end
$var wire 1 q CTRL|stateReg.S3~regout $end
$var wire 1 r CTRL|nextState.S2~combout $end
$var wire 1 s CTRL|stateReg.S2~regout $end
$var wire 1 t CTRL|nextState.S4~0_combout $end
$var wire 1 u CTRL|stateReg.S4~regout $end
$var wire 1 v CTRL|Selector0~0_combout $end
$var wire 1 w CTRL|stateReg.S0~regout $end
$var wire 1 x CTRL|nextState.S1~0_combout $end
$var wire 1 y CTRL|stateReg.S1~regout $end
$var wire 1 z CTRL|i_clr~combout $end
$var wire 1 { DP|CustomAdderRegister_inst|data_out[1]~34_combout $end
$var wire 1 | DP|SadRegister_inst|data_out~0_combout $end
$var wire 1 } DP|CustomAdderRegister_inst|data_out[0]~33 $end
$var wire 1 ~ DP|CustomAdderRegister_inst|data_out[1]~35_combout $end
$var wire 1 !! DP|SadRegister_inst|data_out~1_combout $end
$var wire 1 "! DP|CustomAdderRegister_inst|data_out[1]~36 $end
$var wire 1 #! DP|CustomAdderRegister_inst|data_out[2]~37_combout $end
$var wire 1 $! DP|SadRegister_inst|data_out~2_combout $end
$var wire 1 %! DP|CustomAdderRegister_inst|data_out[2]~38 $end
$var wire 1 &! DP|CustomAdderRegister_inst|data_out[3]~39_combout $end
$var wire 1 '! DP|SadRegister_inst|data_out~3_combout $end
$var wire 1 (! DP|CustomAdderRegister_inst|data_out[3]~40 $end
$var wire 1 )! DP|CustomAdderRegister_inst|data_out[4]~41_combout $end
$var wire 1 *! DP|SadRegister_inst|data_out~4_combout $end
$var wire 1 +! DP|CustomAdderRegister_inst|data_out[4]~42 $end
$var wire 1 ,! DP|CustomAdderRegister_inst|data_out[5]~43_combout $end
$var wire 1 -! DP|SadRegister_inst|data_out~5_combout $end
$var wire 1 .! DP|CustomAdderRegister_inst|data_out[5]~44 $end
$var wire 1 /! DP|CustomAdderRegister_inst|data_out[6]~45_combout $end
$var wire 1 0! DP|SadRegister_inst|data_out~6_combout $end
$var wire 1 1! DP|CustomAdderRegister_inst|data_out[6]~46 $end
$var wire 1 2! DP|CustomAdderRegister_inst|data_out[7]~47_combout $end
$var wire 1 3! DP|SadRegister_inst|data_out~7_combout $end
$var wire 1 4! DP|CustomAdderRegister_inst|data_out[7]~48 $end
$var wire 1 5! DP|CustomAdderRegister_inst|data_out[8]~49_combout $end
$var wire 1 6! DP|SadRegister_inst|data_out~8_combout $end
$var wire 1 7! DP|CustomAdderRegister_inst|data_out[8]~50 $end
$var wire 1 8! DP|CustomAdderRegister_inst|data_out[9]~51_combout $end
$var wire 1 9! DP|SadRegister_inst|data_out~9_combout $end
$var wire 1 :! DP|CustomAdderRegister_inst|data_out[9]~52 $end
$var wire 1 ;! DP|CustomAdderRegister_inst|data_out[10]~53_combout $end
$var wire 1 <! DP|SadRegister_inst|data_out~10_combout $end
$var wire 1 =! DP|CustomAdderRegister_inst|data_out[10]~54 $end
$var wire 1 >! DP|CustomAdderRegister_inst|data_out[11]~55_combout $end
$var wire 1 ?! DP|SadRegister_inst|data_out~11_combout $end
$var wire 1 @! DP|CustomAdderRegister_inst|data_out[11]~56 $end
$var wire 1 A! DP|CustomAdderRegister_inst|data_out[12]~57_combout $end
$var wire 1 B! DP|SadRegister_inst|data_out~12_combout $end
$var wire 1 C! DP|CustomAdderRegister_inst|data_out[12]~58 $end
$var wire 1 D! DP|CustomAdderRegister_inst|data_out[13]~59_combout $end
$var wire 1 E! DP|SadRegister_inst|data_out~13_combout $end
$var wire 1 F! DP|CustomAdderRegister_inst|data_out[13]~60 $end
$var wire 1 G! DP|CustomAdderRegister_inst|data_out[14]~61_combout $end
$var wire 1 H! DP|SadRegister_inst|data_out~14_combout $end
$var wire 1 I! DP|CustomAdderRegister_inst|data_out[14]~62 $end
$var wire 1 J! DP|CustomAdderRegister_inst|data_out[15]~63_combout $end
$var wire 1 K! DP|SadRegister_inst|data_out~15_combout $end
$var wire 1 L! DP|CustomAdderRegister_inst|data_out[15]~64 $end
$var wire 1 M! DP|CustomAdderRegister_inst|data_out[16]~65_combout $end
$var wire 1 N! DP|SadRegister_inst|data_out~16_combout $end
$var wire 1 O! DP|CustomAdderRegister_inst|data_out[16]~66 $end
$var wire 1 P! DP|CustomAdderRegister_inst|data_out[17]~67_combout $end
$var wire 1 Q! DP|SadRegister_inst|data_out~17_combout $end
$var wire 1 R! DP|CustomAdderRegister_inst|data_out[17]~68 $end
$var wire 1 S! DP|CustomAdderRegister_inst|data_out[18]~69_combout $end
$var wire 1 T! DP|SadRegister_inst|data_out~18_combout $end
$var wire 1 U! DP|CustomAdderRegister_inst|data_out[18]~70 $end
$var wire 1 V! DP|CustomAdderRegister_inst|data_out[19]~71_combout $end
$var wire 1 W! DP|SadRegister_inst|data_out~19_combout $end
$var wire 1 X! DP|CustomAdderRegister_inst|data_out[19]~72 $end
$var wire 1 Y! DP|CustomAdderRegister_inst|data_out[20]~73_combout $end
$var wire 1 Z! DP|SadRegister_inst|data_out~20_combout $end
$var wire 1 [! DP|CustomAdderRegister_inst|data_out[20]~74 $end
$var wire 1 \! DP|CustomAdderRegister_inst|data_out[21]~75_combout $end
$var wire 1 ]! DP|SadRegister_inst|data_out~21_combout $end
$var wire 1 ^! DP|CustomAdderRegister_inst|data_out[21]~76 $end
$var wire 1 _! DP|CustomAdderRegister_inst|data_out[22]~77_combout $end
$var wire 1 `! DP|SadRegister_inst|data_out~22_combout $end
$var wire 1 a! DP|CustomAdderRegister_inst|data_out[22]~78 $end
$var wire 1 b! DP|CustomAdderRegister_inst|data_out[23]~79_combout $end
$var wire 1 c! DP|SadRegister_inst|data_out~23_combout $end
$var wire 1 d! DP|CustomAdderRegister_inst|data_out[23]~80 $end
$var wire 1 e! DP|CustomAdderRegister_inst|data_out[24]~81_combout $end
$var wire 1 f! DP|SadRegister_inst|data_out~24_combout $end
$var wire 1 g! DP|CustomAdderRegister_inst|data_out[24]~82 $end
$var wire 1 h! DP|CustomAdderRegister_inst|data_out[25]~83_combout $end
$var wire 1 i! DP|SadRegister_inst|data_out~25_combout $end
$var wire 1 j! DP|CustomAdderRegister_inst|data_out[25]~84 $end
$var wire 1 k! DP|CustomAdderRegister_inst|data_out[26]~85_combout $end
$var wire 1 l! DP|SadRegister_inst|data_out~26_combout $end
$var wire 1 m! DP|CustomAdderRegister_inst|data_out[26]~86 $end
$var wire 1 n! DP|CustomAdderRegister_inst|data_out[27]~87_combout $end
$var wire 1 o! DP|SadRegister_inst|data_out~27_combout $end
$var wire 1 p! DP|CustomAdderRegister_inst|data_out[27]~88 $end
$var wire 1 q! DP|CustomAdderRegister_inst|data_out[28]~89_combout $end
$var wire 1 r! DP|SadRegister_inst|data_out~28_combout $end
$var wire 1 s! DP|CustomAdderRegister_inst|data_out[28]~90 $end
$var wire 1 t! DP|CustomAdderRegister_inst|data_out[29]~91_combout $end
$var wire 1 u! DP|SadRegister_inst|data_out~29_combout $end
$var wire 1 v! DP|CustomAdderRegister_inst|data_out[29]~92 $end
$var wire 1 w! DP|CustomAdderRegister_inst|data_out[30]~93_combout $end
$var wire 1 x! DP|SadRegister_inst|data_out~30_combout $end
$var wire 1 y! DP|CustomAdderRegister_inst|data_out[30]~94 $end
$var wire 1 z! DP|CustomAdderRegister_inst|data_out[31]~95_combout $end
$var wire 1 {! DP|SadRegister_inst|data_out~31_combout $end
$var wire 1 |! CTRL|WideOr0~0_combout $end
$var wire 1 }! DP|IndexRegister_inst|Creg[1]~9_combout $end
$var wire 1 ~! DP|IndexRegister_inst|Creg[4]~15_combout $end
$var wire 1 !" DP|IndexRegister_inst|Creg[6]~19_combout $end
$var wire 1 "" DP|SadRegister_inst|data_out [31] $end
$var wire 1 #" DP|SadRegister_inst|data_out [30] $end
$var wire 1 $" DP|SadRegister_inst|data_out [29] $end
$var wire 1 %" DP|SadRegister_inst|data_out [28] $end
$var wire 1 &" DP|SadRegister_inst|data_out [27] $end
$var wire 1 '" DP|SadRegister_inst|data_out [26] $end
$var wire 1 (" DP|SadRegister_inst|data_out [25] $end
$var wire 1 )" DP|SadRegister_inst|data_out [24] $end
$var wire 1 *" DP|SadRegister_inst|data_out [23] $end
$var wire 1 +" DP|SadRegister_inst|data_out [22] $end
$var wire 1 ," DP|SadRegister_inst|data_out [21] $end
$var wire 1 -" DP|SadRegister_inst|data_out [20] $end
$var wire 1 ." DP|SadRegister_inst|data_out [19] $end
$var wire 1 /" DP|SadRegister_inst|data_out [18] $end
$var wire 1 0" DP|SadRegister_inst|data_out [17] $end
$var wire 1 1" DP|SadRegister_inst|data_out [16] $end
$var wire 1 2" DP|SadRegister_inst|data_out [15] $end
$var wire 1 3" DP|SadRegister_inst|data_out [14] $end
$var wire 1 4" DP|SadRegister_inst|data_out [13] $end
$var wire 1 5" DP|SadRegister_inst|data_out [12] $end
$var wire 1 6" DP|SadRegister_inst|data_out [11] $end
$var wire 1 7" DP|SadRegister_inst|data_out [10] $end
$var wire 1 8" DP|SadRegister_inst|data_out [9] $end
$var wire 1 9" DP|SadRegister_inst|data_out [8] $end
$var wire 1 :" DP|SadRegister_inst|data_out [7] $end
$var wire 1 ;" DP|SadRegister_inst|data_out [6] $end
$var wire 1 <" DP|SadRegister_inst|data_out [5] $end
$var wire 1 =" DP|SadRegister_inst|data_out [4] $end
$var wire 1 >" DP|SadRegister_inst|data_out [3] $end
$var wire 1 ?" DP|SadRegister_inst|data_out [2] $end
$var wire 1 @" DP|SadRegister_inst|data_out [1] $end
$var wire 1 A" DP|SadRegister_inst|data_out [0] $end
$var wire 1 B" CTRL|debug [2] $end
$var wire 1 C" CTRL|debug [1] $end
$var wire 1 D" CTRL|debug [0] $end
$var wire 1 E" DP|IndexRegister_inst|Creg [9] $end
$var wire 1 F" DP|IndexRegister_inst|Creg [8] $end
$var wire 1 G" DP|IndexRegister_inst|Creg [7] $end
$var wire 1 H" DP|IndexRegister_inst|Creg [6] $end
$var wire 1 I" DP|IndexRegister_inst|Creg [5] $end
$var wire 1 J" DP|IndexRegister_inst|Creg [4] $end
$var wire 1 K" DP|IndexRegister_inst|Creg [3] $end
$var wire 1 L" DP|IndexRegister_inst|Creg [2] $end
$var wire 1 M" DP|IndexRegister_inst|Creg [1] $end
$var wire 1 N" DP|IndexRegister_inst|Creg [0] $end
$var wire 1 O" DP|CustomAdderRegister_inst|data_out [31] $end
$var wire 1 P" DP|CustomAdderRegister_inst|data_out [30] $end
$var wire 1 Q" DP|CustomAdderRegister_inst|data_out [29] $end
$var wire 1 R" DP|CustomAdderRegister_inst|data_out [28] $end
$var wire 1 S" DP|CustomAdderRegister_inst|data_out [27] $end
$var wire 1 T" DP|CustomAdderRegister_inst|data_out [26] $end
$var wire 1 U" DP|CustomAdderRegister_inst|data_out [25] $end
$var wire 1 V" DP|CustomAdderRegister_inst|data_out [24] $end
$var wire 1 W" DP|CustomAdderRegister_inst|data_out [23] $end
$var wire 1 X" DP|CustomAdderRegister_inst|data_out [22] $end
$var wire 1 Y" DP|CustomAdderRegister_inst|data_out [21] $end
$var wire 1 Z" DP|CustomAdderRegister_inst|data_out [20] $end
$var wire 1 [" DP|CustomAdderRegister_inst|data_out [19] $end
$var wire 1 \" DP|CustomAdderRegister_inst|data_out [18] $end
$var wire 1 ]" DP|CustomAdderRegister_inst|data_out [17] $end
$var wire 1 ^" DP|CustomAdderRegister_inst|data_out [16] $end
$var wire 1 _" DP|CustomAdderRegister_inst|data_out [15] $end
$var wire 1 `" DP|CustomAdderRegister_inst|data_out [14] $end
$var wire 1 a" DP|CustomAdderRegister_inst|data_out [13] $end
$var wire 1 b" DP|CustomAdderRegister_inst|data_out [12] $end
$var wire 1 c" DP|CustomAdderRegister_inst|data_out [11] $end
$var wire 1 d" DP|CustomAdderRegister_inst|data_out [10] $end
$var wire 1 e" DP|CustomAdderRegister_inst|data_out [9] $end
$var wire 1 f" DP|CustomAdderRegister_inst|data_out [8] $end
$var wire 1 g" DP|CustomAdderRegister_inst|data_out [7] $end
$var wire 1 h" DP|CustomAdderRegister_inst|data_out [6] $end
$var wire 1 i" DP|CustomAdderRegister_inst|data_out [5] $end
$var wire 1 j" DP|CustomAdderRegister_inst|data_out [4] $end
$var wire 1 k" DP|CustomAdderRegister_inst|data_out [3] $end
$var wire 1 l" DP|CustomAdderRegister_inst|data_out [2] $end
$var wire 1 m" DP|CustomAdderRegister_inst|data_out [1] $end
$var wire 1 n" DP|CustomAdderRegister_inst|data_out [0] $end
$upscope $end
$upscope $end
$enddefinitions $end
#0
$dumpvars
0!
0"
0#
0,
0+
0*
0)
0(
0'
0&
0%
0$
1/
0.
1-
0O
0N
0M
0L
0K
0J
0I
0H
0G
0F
0E
0D
0C
0B
0A
0@
0?
0>
0=
0<
0;
0:
09
08
07
06
05
04
03
02
01
00
xP
0Q
1R
xS
1T
1U
1V
1W
1X
1Y
1Z
0[
0\
1]
0^
1_
0`
0a
0b
0c
0d
0e
1f
0g
0h
1i
0j
0k
1l
0m
0n
0o
0p
0q
0r
0s
0t
0u
1v
0w
0x
0y
1z
1{
0|
0}
0~
0!!
1"!
0#!
0$!
0%!
0&!
0'!
1(!
0)!
0*!
0+!
0,!
0-!
1.!
0/!
00!
01!
02!
03!
14!
05!
06!
07!
08!
09!
1:!
0;!
0<!
0=!
0>!
0?!
1@!
0A!
0B!
0C!
0D!
0E!
1F!
0G!
0H!
0I!
0J!
0K!
1L!
0M!
0N!
0O!
0P!
0Q!
1R!
0S!
0T!
0U!
0V!
0W!
1X!
0Y!
0Z!
0[!
0\!
0]!
1^!
0_!
0`!
0a!
0b!
0c!
1d!
0e!
0f!
0g!
0h!
0i!
1j!
0k!
0l!
0m!
0n!
0o!
1p!
0q!
0r!
0s!
0t!
0u!
1v!
0w!
0x!
0y!
0z!
0{!
0|!
0}!
0~!
0!"
0A"
0@"
0?"
0>"
0="
0<"
0;"
0:"
09"
08"
07"
06"
05"
04"
03"
02"
01"
00"
0/"
0."
0-"
0,"
0+"
0*"
0)"
0("
0'"
0&"
0%"
0$"
0#"
0""
zD"
0C"
1B"
0N"
0M"
0L"
0K"
0J"
0I"
0H"
0G"
0F"
zE"
0n"
0m"
0l"
0k"
0j"
0i"
0h"
0g"
0f"
0e"
0d"
0c"
0b"
0a"
0`"
0_"
0^"
0]"
0\"
0["
0Z"
0Y"
0X"
0W"
0V"
0U"
0T"
0S"
0R"
0Q"
0P"
0O"
$end
#1000
1!
1[
1\
0P
1w
1b
1|!
0B"
0{
0z
0-
0/
#2000
0!
0[
0\
1P
#3000
1!
1[
1\
0P
#4000
0!
0[
0\
1P
#5000
1"
1!
1^
1[
1\
0P
1x
0v
#6000
0!
0[
0\
1P
#7000
0"
1!
0^
1[
1\
0P
0x
1v
1y
0w
1{
1z
1r
0|!
0v
1/
#8000
0!
0[
0\
1P
#9000
1!
1[
1\
0P
0y
1s
0{
0z
0r
1C"
1|!
1p
1.
0/
#10000
0!
0[
0\
1P
#11000
1!
1[
1\
0P
0s
1q
0|!
0p
1{
1r
1c
1/
#12000
0!
0[
0\
1P
#13000
1!
1[
1\
0P
1n"
1s
0q
1N"
1|
1}
0]
1|!
1p
0{
0r
1}!
0X
1,
1~
0Z
0/
0}
1]
0~
#14000
0!
0[
0\
1P
#15000
1!
1[
1\
0P
0s
1q
0|!
0p
1{
1r
0c
1/
#16000
0!
0[
0\
1P
#17000
1!
1[
1\
0P
1M"
1s
0q
0N"
1X
1|!
1p
0{
0r
1+
0,
1Z
0/
1}
0]
1~
#18000
0!
0[
0\
1P
#19000
1!
1[
1\
0P
0s
1q
0|!
0p
1{
1r
1c
1/
#20000
0!
0[
0\
1P
#21000
1!
1[
1\
0P
1m"
0n"
1s
0q
1N"
1!!
0"!
0~
0|
0}
1]
1|!
1p
0{
0r
1d
0}!
0X
1,
1#!
1"!
1~
1e
0Z
0/
0#!
0]
#22000
0!
0[
0\
1P
#23000
1!
1[
1\
0P
0s
1q
0|!
0p
1{
1r
0c
1/
#24000
0!
0[
0\
1P
#25000
1!
1[
1\
0P
0M"
1s
0q
1L"
0N"
0d
1X
1|!
1p
0{
0r
0f
0e
0+
1*
0,
1f
1e
1Z
1g
0/
0g
1]
#26000
0!
0[
0\
1P
#27000
1!
1[
1\
0P
0s
1q
0|!
0p
1{
1r
1c
1/
#28000
0!
0[
0\
1P
#29000
1!
1[
1\
0P
1n"
1s
0q
1N"
1|
1}
0]
1|!
1p
0{
0r
1}!
0X
1,
0"!
0~
0Z
0/
1#!
0}
1]
1"!
1~
0#!
#30000
0!
0[
0\
1P
#31000
1!
1[
1\
0P
0s
1q
0|!
0p
1{
1r
0c
1/
#32000
0!
0[
0\
1P
#33000
1!
1[
1\
0P
1M"
1s
0q
0N"
1|!
1p
0{
0r
1+
0,
0/
#34000
0!
0[
0\
1P
#35000
1!
1[
1\
0P
0s
1q
0|!
0p
1{
1r
1c
1/
#36000
0!
0[
0\
1P
#37000
1!
1[
1\
0P
1s
0q
1N"
1|!
1p
0{
0r
1d
0}!
1,
0f
0e
0/
1g
#38000
0!
0[
0\
1P
#39000
1!
1[
1\
0P
0s
1q
0|!
0p
1{
1r
0c
1/
#40000
0!
0[
0\
1P
#41000
1!
1[
1\
0P
0M"
1s
0q
1K"
0L"
0N"
0d
1|!
1t
0{
0r
1h
0g
1f
1e
0+
1)
0*
0,
0e
1~!
0h
1g
0/
0~!
#42000
0!
0[
0\
1P
#43000
1!
1[
1\
0P
1u
0s
1B"
1v
0C"
0t
1-
0.
#44000
0!
0[
0\
1P
#45000
1!
1[
1\
0P
1@"
1A"
1w
0u
0B"
1N
1O
0-
#46000
1"
0!
1^
0[
0\
1P
1x
0v
#47000
1!
1[
1\
0P
1y
0w
1{
1z
1r
0|!
0x
1/
0K"
0g
1X
0)
1Z
1}
0]
0"!
0~
1#!
#48000
0"
0!
0^
0[
0\
1P
#49000
1!
1[
1\
0P
0m"
0n"
0y
1s
0!!
1"!
1~
0|
0}
1]
0{
0z
0r
1C"
1|!
1p
0#!
0~
1.
0/
#50000
0!
0[
0\
1P
#51000
1!
1[
1\
0P
0s
1q
0|!
0p
1{
1r
1c
1/
#52000
1#
0!
1`
0[
0\
1a
1P
0q
0b
0C"
0r
0c
1B"
1z
1v
0.
1-
#53000
1!
1[
1\
0P
0@"
0A"
0N
0O
#54000
0#
0!
0`
0[
0\
0a
1P
#55000
1!
1[
1\
0P
1w
1b
1|!
0B"
0{
0z
0-
0/
#56000
0!
0[
0\
1P
#57000
1!
1[
1\
0P
#58000
1"
0!
1^
0[
0\
1P
1x
0v
#59000
1!
1[
1\
0P
1y
0w
1{
1z
1r
0|!
0x
1/
#60000
0"
0!
0^
0[
0\
1P
#61000
1!
1[
1\
0P
0y
1s
0{
0z
0r
1C"
1|!
1p
1.
0/
#62000
0!
0[
0\
1P
#63000
1!
1[
1\
0P
0s
1q
0|!
0p
1{
1r
1c
1/
#64000
0!
0[
0\
1P
#65000
1!
1[
1\
0P
1n"
1s
0q
1N"
1|
1}
0]
1|!
1p
0{
0r
1}!
0X
1,
1~
0Z
0/
0}
1]
0~
#66000
0!
0[
0\
1P
#67000
1!
1[
1\
0P
0s
1q
0|!
0p
1{
1r
0c
1/
#68000
0!
0[
0\
1P
#69000
1!
1[
1\
0P
1M"
1s
0q
0N"
1X
1|!
1p
0{
0r
1+
0,
1Z
0/
1}
0]
1~
#70000
0!
0[
0\
1P
#71000
1!
1[
1\
0P
0s
1q
0|!
0p
1{
1r
1c
1/
#72000
0!
0[
0\
1P
#73000
1!
1[
1\
0P
1m"
0n"
1s
0q
1N"
1!!
0"!
0~
0|
0}
1]
1|!
1p
0{
0r
1d
0}!
0X
1,
1#!
1"!
1~
1e
0Z
0/
0#!
0]
#74000
0!
0[
0\
1P
#75000
1!
1[
1\
0P
0s
1q
0|!
0p
1{
1r
0c
1/
#76000
0!
0[
0\
1P
#77000
1!
1[
1\
0P
0M"
1s
0q
1L"
0N"
0d
1X
1|!
1p
0{
0r
0f
0e
0+
1*
0,
1f
1e
1Z
1g
0/
0g
1]
#78000
0!
0[
0\
1P
#79000
1!
1[
1\
0P
0s
1q
0|!
0p
1{
1r
1c
1/
#80000
0!
0[
0\
1P
#81000
1!
1[
1\
0P
1n"
1s
0q
1N"
1|
1}
0]
1|!
1p
0{
0r
1}!
0X
1,
0"!
0~
0Z
0/
1#!
0}
1]
1"!
1~
0#!
#82000
0!
0[
0\
1P
#83000
1!
1[
1\
0P
0s
1q
0|!
0p
1{
1r
0c
1/
#84000
0!
0[
0\
1P
#85000
1!
1[
1\
0P
1M"
1s
0q
0N"
1|!
1p
0{
0r
1+
0,
0/
#86000
0!
0[
0\
1P
#87000
1!
1[
1\
0P
0s
1q
0|!
0p
1{
1r
1c
1/
#88000
0!
0[
0\
1P
#89000
1!
1[
1\
0P
1s
0q
1N"
1|!
1p
0{
0r
1d
0}!
1,
0f
0e
0/
1g
#90000
0!
0[
0\
1P
#91000
1!
1[
1\
0P
0s
1q
0|!
0p
1{
1r
0c
1/
#92000
0!
0[
0\
1P
#93000
1!
1[
1\
0P
0M"
1s
0q
1K"
0L"
0N"
0d
1|!
1t
0{
0r
1h
0g
1f
1e
0+
1)
0*
0,
0e
1~!
0h
1g
0/
0~!
#94000
0!
0[
0\
1P
#95000
1!
1[
1\
0P
1u
0s
1B"
1v
0C"
0t
1-
0.
#96000
0!
0[
0\
1P
#97000
1!
1[
1\
0P
1@"
1A"
1w
0u
0B"
1N
1O
0-
#98000
0!
0[
0\
1P
#99000
1!
1[
1\
0P
#100000
0!
0[
0\
1P
#101000
1!
1[
1\
0P
#102000
0!
0[
0\
1P
#103000
1!
1[
1\
0P
#104000
0!
0[
0\
1P
#105000
1!
1[
1\
0P
#106000
0!
0[
0\
1P
#107000
1!
1[
1\
0P
#108000
0!
0[
0\
1P
#109000
1!
1[
1\
0P
#110000
0!
0[
0\
1P
#111000
1!
1[
1\
0P
#112000
0!
0[
0\
1P
#113000
1!
1[
1\
0P
#114000
0!
0[
0\
1P
#115000
1!
1[
1\
0P
#116000
0!
0[
0\
1P
#117000
1!
1[
1\
0P
#118000
0!
0[
0\
1P
#119000
1!
1[
1\
0P
#120000
0!
0[
0\
1P
#121000
1!
1[
1\
0P
#122000
0!
0[
0\
1P
#123000
1!
1[
1\
0P
#124000
0!
0[
0\
1P
#125000
1!
1[
1\
0P
#126000
0!
0[
0\
1P
#127000
1!
1[
1\
0P
#128000
0!
0[
0\
1P
#129000
1!
1[
1\
0P
#130000
0!
0[
0\
1P
#131000
1!
1[
1\
0P
#132000
0!
0[
0\
1P
#133000
1!
1[
1\
0P
#134000
0!
0[
0\
1P
#135000
1!
1[
1\
0P
#136000
0!
0[
0\
1P
#137000
1!
1[
1\
0P
#138000
0!
0[
0\
1P
#139000
1!
1[
1\
0P
#140000
0!
0[
0\
1P
#141000
1!
1[
1\
0P
#142000
0!
0[
0\
1P
#143000
1!
1[
1\
0P
#144000
0!
0[
0\
1P
#145000
1!
1[
1\
0P
#146000
0!
0[
0\
1P
#147000
1!
1[
1\
0P
#148000
0!
0[
0\
1P
#149000
1!
1[
1\
0P
#150000
0!
0[
0\
1P
#151000
1!
1[
1\
0P
#152000
0!
0[
0\
1P
#153000
1!
1[
1\
0P
#154000
0!
0[
0\
1P
#155000
1!
1[
1\
0P
#156000
0!
0[
0\
1P
#157000
1!
1[
1\
0P
#158000
0!
0[
0\
1P
#159000
1!
1[
1\
0P
#160000
0!
0[
0\
1P
#161000
1!
1[
1\
0P
#162000
0!
0[
0\
1P
#163000
1!
1[
1\
0P
#164000
0!
0[
0\
1P
#165000
1!
1[
1\
0P
#166000
0!
0[
0\
1P
#167000
1!
1[
1\
0P
#168000
0!
0[
0\
1P
#169000
1!
1[
1\
0P
#170000
0!
0[
0\
1P
#171000
1!
1[
1\
0P
#172000
0!
0[
0\
1P
#173000
1!
1[
1\
0P
#174000
0!
0[
0\
1P
#175000
1!
1[
1\
0P
#176000
0!
0[
0\
1P
#177000
1!
1[
1\
0P
#178000
0!
0[
0\
1P
#179000
1!
1[
1\
0P
#180000
0!
0[
0\
1P
#181000
1!
1[
1\
0P
#182000
0!
0[
0\
1P
#183000
1!
1[
1\
0P
#184000
0!
0[
0\
1P
#185000
1!
1[
1\
0P
#186000
0!
0[
0\
1P
#187000
1!
1[
1\
0P
#188000
0!
0[
0\
1P
#189000
1!
1[
1\
0P
#190000
0!
0[
0\
1P
#191000
1!
1[
1\
0P
#192000
0!
0[
0\
1P
#193000
1!
1[
1\
0P
#194000
0!
0[
0\
1P
#195000
1!
1[
1\
0P
#196000
0!
0[
0\
1P
#197000
1!
1[
1\
0P
#198000
0!
0[
0\
1P
#199000
1!
1[
1\
0P
#200000
0!
0[
0\
1P
#201000
1!
1[
1\
0P
#202000
0!
0[
0\
1P
#203000
1!
1[
1\
0P
#204000
0!
0[
0\
1P
#205000
1!
1[
1\
0P
#206000
0!
0[
0\
1P
#207000
1!
1[
1\
0P
#208000
0!
0[
0\
1P
#209000
1!
1[
1\
0P
#210000
0!
0[
0\
1P
#211000
1!
1[
1\
0P
#212000
0!
0[
0\
1P
#213000
1!
1[
1\
0P
#214000
0!
0[
0\
1P
#215000
1!
1[
1\
0P
#216000
0!
0[
0\
1P
#217000
1!
1[
1\
0P
#218000
0!
0[
0\
1P
#219000
1!
1[
1\
0P
#220000
0!
0[
0\
1P
#221000
1!
1[
1\
0P
#222000
0!
0[
0\
1P
#223000
1!
1[
1\
0P
#224000
0!
0[
0\
1P
#225000
1!
1[
1\
0P
#226000
0!
0[
0\
1P
#227000
1!
1[
1\
0P
#228000
0!
0[
0\
1P
#229000
1!
1[
1\
0P
#230000
0!
0[
0\
1P
#231000
1!
1[
1\
0P
#232000
0!
0[
0\
1P
#233000
1!
1[
1\
0P
#234000
0!
0[
0\
1P
#235000
1!
1[
1\
0P
#236000
0!
0[
0\
1P
#237000
1!
1[
1\
0P
#238000
0!
0[
0\
1P
#239000
1!
1[
1\
0P
#240000
0!
0[
0\
1P
#241000
1!
1[
1\
0P
#242000
0!
0[
0\
1P
#243000
1!
1[
1\
0P
#244000
0!
0[
0\
1P
